%YAML 1.1
%TAG !u! tag:unity3d.com,2011:
--- !u!114 &11400000
MonoBehaviour:
  m_ObjectHideFlags: 0
  m_CorrespondingSourceObject: {fileID: 0}
  m_PrefabInstance: {fileID: 0}
  m_PrefabAsset: {fileID: 0}
  m_GameObject: {fileID: 0}
  m_Enabled: 1
  m_EditorHideFlags: 0
  m_Script: {fileID: 11500000, guid: 89e3d9d16ee3ac54f81a5b2b8682fc2c, type: 3}
  m_Name: MaleHetero6
  m_EditorClassIdentifier: 
  name: Luca
  gender: male
  sexuality: hetero
  likes: 2
  dislikes: 
  image: {fileID: 21300000, guid: ee10d53b073c17446882b624ec88aff8, type: 3}
